{
    "openapi": "3.0.3",
    "info": {
        "title": "Generali Life (Hong Kong) Limited - API for Digital Partner",
        "description": "Generali Life (Hong Kong) Limited - API for Digital Partner",
        "version": "0.1"
    },
    "servers": [
        {
            "url": "http://api.generali.com.hk/",
            "description": "Generali Life (Hong Kong) Limited - API"
        }
    ],
    "tags": [
        {
            "name": "openapi-digital-partner",
            "description": "OpenAPI for Digital Partner"
        },
		{
            "name": "za-bank",
            "description": "za-bank"
        }
    ],
    "paths": {
        "/open-api/digital-partner/za/lead-info": {
            "post": {
                "tags": [
                    "openapi-digital-partner"
                ],
                "summary": "Push lead info",
                "operationId": "addLeadInfo",
                "parameters": [
                    {
                        "name": "agentEmail",
                        "in": "query",
                        "description": "Agent Email",
                        "required": true,
                        "style": "form",
                        "schema": {
                            "type": "string"
                        }
                    },
                    {
                        "name": "bankUserId",
                        "in": "query",
                        "description": "Bank User ID",
                        "required": true,
                        "style": "form",
                        "schema": {
                            "type": "string"
                        }
                    },
                    {
                        "name": "leadId",
                        "in": "query",
                        "description": "Lead ID",
                        "required": true,
                        "style": "form",
                        "schema": {
                            "type": "string"
                        }
                    },
                    {
                        "name": "firstName",
                        "in": "query",
                        "description": "First Name (English)",
                        "required": false,
                        "style": "form",
                        "schema": {
                            "type": "string"
                        }
                    },
                    {
                        "name": "lastName",
                        "in": "query",
                        "description": "Last Name (English)",
                        "required": false,
                        "style": "form",
                        "schema": {
                            "type": "string"
                        }
                    },                    
                    {
                        "name": "chineseName",
                        "in": "query",
                        "description": "Chinese Name",
                        "required": false,
                        "style": "form",
                        "schema": {
                            "type": "string"
                        }
                    },
                    {
                        "name": "gender",
                        "in": "query",
                        "description": "Gender",
                        "required": false,
                        "style": "form",
                        "schema": {
                            "type": "string"
                        }
                    },
                    {
                        "name": "customerEmail",
                        "in": "query",
                        "description": "Customer Email",
                        "required": false,
                        "style": "form",
                        "schema": {
                            "type": "string"
                        }
                    },                    
                    {
                        "name": "requestDateTime",
                        "in": "query",
                        "description": "The request date time, for tack purpose",
                        "required": true,
                        "style": "form",
                        "schema": {
                            "type": "string",
                            "format": "date-time"
                        }
                    }
                ],
                "responses": {
                    "200": {
                        "description": "OK",
                        "content": {
                            "application/json;charset=UTF-8": {
                                "schema": {
                                    "$ref": "#/components/schemas/LeadInfoRsp"
                                }
                            }
                        }
                    },
                    "201": {
                        "description": "Created"
                    },
                    "401": {
                        "description": "Unauthorized"
                    },
                    "403": {
                        "description": "Forbidden"
                    },
                    "404": {
                        "description": "Not Found"
                    }
                }
            }
        }
    },
    "components": {
        "schemas": {
            "LeadInfoRsp": {
                "title": "LeadInfoRsp",
                "required": [
                    "successInd"
                ],
                "type": "object",
                "properties": {
                    "successInd": {
                        "type": "boolean",
                        "description": "Success Indicator",
                        "example": true
                    }
                }
            }
        }
    }
}